<svg xmlns="http://www.w3.org/2000/svg" xmlns:xlink="http://www.w3.org/1999/xlink" id="Layer_1" x="0px" y="0px" viewBox="0 0 256 256" style="enable-background:new 0 0 256 256;" xml:space="preserve">
<g>
	<path d="M234.73,127.91c0,38.11-0.01,76.21,0.01,114.32c0,4.93-1.65,9.02-5.93,11.57c-1.88,1.12-4.21,1.57-6.4,2.05   c-1.34,0.29-2.79,0.07-4.2,0.07c-61.08,0-122.15-0.01-183.23,0.02c-5.54,0-9.86-2.09-12.28-7.1c-0.97-2.01-1.38-4.49-1.39-6.76   c-0.09-26.59-0.06-53.19-0.06-79.78c0-49.45,0.02-98.89-0.02-148.34c0-5.42,1.89-9.73,6.73-12.36c1.49-0.81,3.29-1.12,4.98-1.48   c1.01-0.21,2.1-0.1,3.15-0.1c61.19,0,122.39,0,183.58-0.01c3.13,0,6.2,0.09,8.94,1.88c3.43,2.24,5.52,5.32,5.98,9.42   c0.11,1.04,0.12,2.1,0.12,3.15C234.74,52.28,234.73,90.1,234.73,127.91z M226.25,143.69c0-32.96-0.01-65.92,0.03-98.89   c0-1.65-0.4-2.19-2.13-2.19c-64.11,0.04-128.23,0.04-192.34,0.01c-1.56,0-2.1,0.36-2.1,2.03c0.04,65.81,0.03,131.62,0.04,197.42   c0,3.8,1.54,5.32,5.33,5.32c61.78,0,123.55,0,185.33-0.01c4.5,0,5.83-1.35,5.83-5.87C226.25,208.92,226.25,176.3,226.25,143.69z    M127.82,34.16c32.09,0,64.17-0.02,96.26,0.04c1.84,0,2.24-0.54,2.21-2.27c-0.1-5.9-0.04-11.81-0.04-17.71   c0-4.25-1.44-5.7-5.66-5.7c-61.83,0-123.67,0-185.5-0.01c-3.75,0-5.32,1.55-5.32,5.33c-0.01,6.02,0,12.04,0,18.06   c0,2.24,0,2.25,2.33,2.25C64,34.16,95.91,34.16,127.82,34.16z"></path>
	<path d="M85.29,121.49c0-7.48,0.04-14.96-0.02-22.44c-0.02-2.44,0.95-4.01,3.1-5.19c12.34-6.77,24.63-13.61,36.91-20.48   c1.89-1.06,3.57-1.05,5.43,0c12.39,6.91,24.79,13.8,37.21,20.66c1.97,1.09,2.81,2.64,2.81,4.84c-0.02,15.08-0.02,30.16,0.01,45.24   c0,2.19-0.8,3.75-2.65,4.97c-8.15,5.36-16.23,10.82-24.39,16.17c-0.92,0.6-2.16,1.01-3.25,1.03c-8.3,0.09-16.6,0.09-24.9,0   c-1.09-0.01-2.32-0.43-3.24-1.04c-8.26-5.41-16.45-10.92-24.69-16.36c-1.68-1.11-2.35-2.63-2.35-4.59   c0.02-7.6,0.01-15.2,0.01-22.79C85.28,121.49,85.29,121.49,85.29,121.49z M162.17,105.48c-0.69,0.32-1.11,0.48-1.5,0.7   c-9.75,5.41-19.53,10.77-29.23,16.28c-2.41,1.37-4.45,1.38-6.86,0.02c-9.6-5.44-19.27-10.75-28.92-16.1   c-0.52-0.29-1.08-0.52-1.7-0.81c-0.07,0.44-0.12,0.61-0.12,0.78c0,11.75-0.02,23.49,0.04,35.24c0,0.64,0.57,1.5,1.13,1.88   c6.82,4.62,13.67,9.19,20.55,13.71c0.63,0.42,1.51,0.64,2.28,0.65c6.78,0.05,13.56,0.06,20.34,0c0.81-0.01,1.74-0.3,2.42-0.75   c6.74-4.43,13.42-8.94,20.16-13.36c1.05-0.69,1.46-1.4,1.45-2.67c-0.07-6.78-0.03-13.56-0.03-20.34   C162.17,115.74,162.17,110.78,162.17,105.48z M157.48,98.19c-0.58-0.4-0.88-0.65-1.23-0.84c-9.02-5.02-18.04-10.05-27.11-15   c-0.61-0.33-1.72-0.3-2.34,0.04c-7.29,3.94-14.53,7.97-21.77,11.99c-2.12,1.18-4.22,2.4-6.53,3.72c0.57,0.36,0.89,0.57,1.23,0.76   c8.06,4.48,16.2,8.81,24.13,13.51c2.96,1.75,5.16,1.86,8.18,0.06C140.31,107.51,148.82,103,157.48,98.19z"></path>
	<path d="M136.68,213.28c0-2.88,0-5.54,0-8.42c0.63-0.03,1.24-0.09,1.86-0.09c17.16-0.01,34.33,0.01,51.49-0.04   c1.57,0,2.23,0.36,2.07,2.03c-0.14,1.5-0.12,3.04,0,4.55c0.12,1.52-0.38,2.02-1.95,2c-8.35-0.07-16.7-0.03-25.04-0.03   c-8.81,0-17.63,0-26.44,0C138.03,213.28,137.41,213.28,136.68,213.28z"></path>
	<path d="M119.52,196.12c0-2.85,0-5.52,0-8.37c0.63-0.04,1.2-0.11,1.76-0.11c11.56,0,23.11,0.02,34.67-0.03   c1.5-0.01,2.1,0.35,2,1.94c-0.13,2.14-0.03,4.29-0.03,6.56C145.04,196.12,132.35,196.12,119.52,196.12z"></path>
	<path d="M127.9,204.92c0,2.75,0,5.46,0,8.26c-11.36,0-22.6,0-33.95,0c0-2.77,0-5.43,0-8.26   C105.22,204.92,116.5,204.92,127.9,204.92z"></path>
	<path d="M74.69,213.28c-2.98,0-5.96-0.05-8.93,0.02c-1.33,0.03-1.93-0.32-1.84-1.76c0.1-1.75,0.07-3.5,0.01-5.25   c-0.04-1.1,0.27-1.56,1.47-1.55c6.19,0.05,12.38,0.04,18.57,0.01c0.96,0,1.38,0.29,1.35,1.3c-0.05,1.98-0.06,3.97,0,5.95   c0.03,1.01-0.36,1.31-1.34,1.29C80.88,213.25,77.78,213.28,74.69,213.28z"></path>
	<path d="M110.91,196.15c-4.34,0-8.45,0-12.8,0c0-2.62-0.03-5.17,0.05-7.71c0.01-0.28,0.7-0.76,1.07-0.76c3.5-0.06,7-0.06,10.5,0.01   c0.4,0.01,1.11,0.57,1.12,0.9C110.96,191.07,110.91,193.56,110.91,196.15z"></path>
	<path d="M59.7,21.31c0.01,2.29-1.92,4.23-4.23,4.25c-2.39,0.02-4.4-1.97-4.36-4.32c0.04-2.26,2.06-4.21,4.34-4.19   C57.77,17.08,59.69,19.01,59.7,21.31z"></path>
	<path d="M42.56,25.55c-2.36-0.03-4.22-1.9-4.21-4.24c0-2.32,1.9-4.24,4.21-4.26c2.38-0.02,4.35,1.97,4.31,4.35   C46.82,23.73,44.9,25.58,42.56,25.55z"></path>
	<path d="M72.45,21.31c0,2.37-1.81,4.22-4.17,4.25c-2.4,0.03-4.37-1.95-4.32-4.32c0.05-2.32,1.97-4.19,4.3-4.19   C70.59,17.06,72.45,18.95,72.45,21.31z"></path>
</g>
</svg>